{
    "rulesDirectory": [
        "./node_modules/codelyzer",
        "./_build/common/tsLintRules",
        "./_build/common/customRules/out"
    ],
    "rules": {
        "class-name": true,
        "comment-format": [true, "check-space"],
        "curly": true,
        "for-in": true,
        "indent": [true, "spaces"],
        "interface-name": true,
        "no-any": false,
        "no-arg": true,
        "no-bitwise": true,
        "no-consecutive-blank-lines": true,
        "no-construct": true,
        "no-duplicate-variable": true,
        "no-empty": true,
        "no-eval": true,
        "no-string-literal": true,
        "no-shadowed-variable": true,
        "no-switch-case-fall-through": true,
        "trailing-comma": [true, {"multiline": "never", "singleline": "never"}],
        "no-trailing-whitespace": true,
        "no-unused-expression": true,
        "no-var-keyword": true,
        "one-variable-per-declaration": true,
        "one-line": [true,
            "check-open-brace",
            "check-catch",
            "check-else",
            "check-whitespace"
        ],
        "quotemark": [true, "single"],
        "radix": true,
        "semicolon": [true, "always", "ignore-bound-class-methods"],
        "triple-equals": [true, "allow-null-check"],
        "type-def": [false,
            "call-signature",
            "index-signature",
            "parameter",
            "property-signature",
            "variable-declarator",
            "member-variable-declarator"],
        "typedef-whitespace": [true, "call-signature"],
        "variable-name": [false, "allow-leading-underscore"],
        "whitespace": [true,
            "check-branch",
            "check-decl",
            "check-operator",
            "check-separator",
            "check-type"
        ],
        "no-debugger": true,
        "no-console": [true,
            "log",
            "error",
            "warn",
            "debug",
            "info",
            "time",
            "timeEnd",
            "trace"
        ],

        "directive-selector": [true, "attribute", "tm", "camelCase"],
        "component-selector": [true, "element", "tm", "kebab-case"],
        "use-input-property-decorator": true,
        "use-output-property-decorator": true,
        "use-host-property-decorator": true,
        "no-attribute-parameter-decorator": true,
        "no-input-rename": true,
        "no-output-rename": true,
        "no-forward-ref": true,
        "use-life-cycle-interface": true,
        "use-pipe-transform-interface": true,
        "pipe-naming": [true, "camelCase", "tm"],
        "component-class-suffix": true,
        "directive-class-suffix": true,
        "import-destructuring-spacing": true,
        "templates-use-public": true,
        "no-access-missing-member": false,
        "invoke-injectable": true,

        "constructor-params-format": true,
        // Disabled `constructor-params-order` - this lint has been broken
        // for a while and applying the fix leads to a bunch of code churn
        "constructor-params-order": false,
        "space-before-function-paren": true,
        "no-for-in-on-array": true,
        "no-spaces-in-conditional-expression": true,
        "no-to-be-truthy": [true, ".spec.ts"],
        "provider-ineeda-factory": [true, ".spec.ts"],
        "no-rxjs-root-import": true,
        "no-fdescribe-or-fit": [true, ".spec.ts"],
        "must-call-ng-on-destroy-when-subscribing": [true, [".component.ts"]],
        "class-members-must-have-visibility-modifier": true,
        // Disabled `angular-component-required-configuration`. This lint requires a lot of components to be "fixed"
        // with configuration that may change their behavior.
        // TODO: PDN-1091 - verify and re-enable this lint.
        // This might require disabling the lint for all existing failing components
        // and enforcing the rule only for new components.
        "angular-component-required-configuration": false,
        "no-protractor-breaking-operators": true,
        "no-imports-from-module-blacklist": [true,
            "^@trademe/tangram/(components|icons)$"
        ]
    }
}
